…
tenedencia central

Una primera alternbativa, la de toda la vida, es imputar con algún estadístico de tendencia central (media, mediana, moda). Es decir, cambiamos todos los NA por el promedio de los datos que si tenemos. ¿Ventajas? Facil de hacer. ¿Problema? stamos disminyendo artificialmente la variabilidad de la muestra. La implementación en R es realativamente fácil como se muestra a continuación.

calc_moda <- function(x) {
   z <- table(as.vector(x))
   names(z)[z == max(z)]
}

mis_datos %>%
   mutate(carat = ifelse(is.na(carat), mean(carat, na.rm=T), carat),
          cut = if_else(is.na(cut), calc_moda(cut), "cut"))

## # A tibble: 500 x 10
##    carat cut   color clarity depth table price     x     y     z
##    <dbl> <chr> <ord> <ord>   <dbl> <dbl> <int> <dbl> <dbl> <dbl>
##  1 1.09  cut   G     SI1      62.2  56.0  5022  6.60  6.55  4.09
##  2 0.800 cut   I     <NA>     60.9  60.0    NA  6.01  5.95  3.64
##  3 0.320 cut   D     SI1      62.0  57.0   756  4.40  4.37  2.72
##  4 1.06  cut   <NA>  SI2      61.8  57.0  4270  6.57  6.60  4.07
##  5 0.550 cut   H     <NA>     61.6  55.0  1668  5.30  5.31  3.26
##  6 0.720 cut   D     SI2      60.5  60.0  2429  5.82  5.72  3.49
##  7 0.700 cut   E     <NA>     64.4  58.0  1998  5.58  5.51  3.57
##  8 0.300 cut   G     VVS2     62.1  55.0   665  4.32 NA     2.69
##  9 0.500 cut   E     VS2      62.1  55.0  1554  5.11  5.13  3.18
## 10 0.410 cut   G     SI1      62.7  58.0   923  4.74  4.70  2.96
## # ... with 490 more rows
…
